…
Observations are the level of products in orders by user. There are user
/ order variables – user ID, order ID, order day, and order hour. There
are also product variables – product ID, name, aisle, department, and
some numeric codes.

**answers** 1) How many aisles are there, and which aisles are the most
items ordered from?

``` r
instacart %>%
  count(aisle) %>%
  arrange(desc(n))
```

    ## # A tibble: 134 x 2
    ##    aisle                              n
    ##    <chr>                          <int>
    ##  1 fresh vegetables              150609
    ##  2 fresh fruits                  150473
    ##  3 packaged vegetables fruits     78493
    ##  4 yogurt                         55240
    ##  5 packaged cheese                41699
    ##  6 water seltzer sparkling water  36617
    ##  7 milk                           32644
    ##  8 chips pretzels                 31269
    ##  9 soy lactosefree                26240
    ## 10 bread                          23635
    ## # … with 124 more rows
…
<!-- end list -->

``` r
data("ny_noaa")

ny_noaa %>%
  dplyr::mutate(year = lubridate::year(date), 
                month = lubridate::month(date), 
                day = lubridate::day(date)) %>%
  mutate(
    tmax = as.numeric(tmax) / 10,
    tmin = as.numeric(tmin) / 10)
```

    ## # A tibble: 2,595,176 x 10
    ##    id          date        prcp  snow  snwd  tmax  tmin  year month   day
    ##    <chr>       <date>     <int> <int> <int> <dbl> <dbl> <dbl> <dbl> <int>
    ##  1 US1NYAB0001 2007-11-01    NA    NA    NA    NA    NA  2007    11     1
    ##  2 US1NYAB0001 2007-11-02    NA    NA    NA    NA    NA  2007    11     2
    ##  3 US1NYAB0001 2007-11-03    NA    NA    NA    NA    NA  2007    11     3
    ##  4 US1NYAB0001 2007-11-04    NA    NA    NA    NA    NA  2007    11     4
    ##  5 US1NYAB0001 2007-11-05    NA    NA    NA    NA    NA  2007    11     5
    ##  6 US1NYAB0001 2007-11-06    NA    NA    NA    NA    NA  2007    11     6
    ##  7 US1NYAB0001 2007-11-07    NA    NA    NA    NA    NA  2007    11     7
    ##  8 US1NYAB0001 2007-11-08    NA    NA    NA    NA    NA  2007    11     8
    ##  9 US1NYAB0001 2007-11-09    NA    NA    NA    NA    NA  2007    11     9
    ## 10 US1NYAB0001 2007-11-10    NA    NA    NA    NA    NA  2007    11    10
    ## # … with 2,595,166 more rows

``` r
ny_noaa %>%
  count(snow) %>%
  arrange(desc(n))
```

    ## # A tibble: 282 x 2
    ##     snow       n
    ##    <int>   <int>
    ##  1     0 2008508
    ##  2    NA  381221
    ##  3    25   31022
    ##  4    13   23095
    ##  5    51   18274
    ##  6    76   10173
    ##  7     8    9962
    ##  8     5    9748
    ##  9    38    9197
    ## 10     3    8790
    ## # … with 272 more rows
…
